{
    "name": "Supercompany.RecyclableList",
    "rootNamespace": "Supercompany.RecyclableList",
    "references": [
        "GUID:716c2182465714e178322d8306adc9e5"
    ],
    "includePlatforms": [],
    "excludePlatforms": [],
    "allowUnsafeCode": false,
    "overrideReferences": false,
    "precompiledReferences": [],
    "autoReferenced": true,
    "defineConstraints": [],
    "versionDefines": [],
    "noEngineReferences": false
}